2014-01-13 02:17:27.2457|INFO|AspTest.MvcApplication|Application Start
2014-01-13 02:17:28.1649|INFO|AspTest.MvcApplication|Application Init
2014-01-13 02:17:28.1809|INFO|AspTest.MvcApplication|Application Init
2014-01-13 02:28:37.0960|INFO|AspTest.MvcApplication|Application Start
2014-01-13 02:28:37.8002|INFO|AspTest.MvcApplication|Application Init
2014-01-13 02:28:37.8232|INFO|AspTest.MvcApplication|Application Init
